{
	"info": {
		"_postman_id": "59fe360f-12e5-4de2-97c8-fa54f6ff1ddd",
		"name": "Loyalty Voucher",
		"schema": "https://schema.getpostman.com/json/collection/v2.1.0/collection.json"
	},
	"item": [
		{
			"name": "CheckInfo",
			"protocolProfileBehavior": {
				"disableBodyPruning": true
			},
			"request": {
				"auth": {
					"type": "noauth"
				},
				"method": "GET",
				"header": [
					{
						"key": "Content-Type",
						"name": "Content-Type",
						"value": "application/json",
						"type": "text"
					}
				],
				"body": {
					"mode": "raw",
					"raw": ""
				},
				"url": {
					"raw": "http://192.168.203.240:8080/Loyalty/api/info",
					"protocol": "http",
					"host": [
						"192",
						"168",
						"203",
						"240"
					],
					"port": "8080",
					"path": [
						"Loyalty",
						"api",
						"info"
					]
				}
			},
			"response": []
		},
		{
			"name": "CheckVoucherL2",
			"request": {
				"auth": {
					"type": "basic",
					"basic": [
						{
							"key": "password",
							"value": "123456",
							"type": "string"
						},
						{
							"key": "username",
							"value": "test-eshop",
							"type": "string"
						}
					]
				},
				"method": "POST",
				"header": [
					{
						"key": "Content-Type",
						"name": "Content-Type",
						"value": "application/json",
						"type": "text"
					}
				],
				"body": {
					"mode": "raw",
					"raw": "{\n    \"voucherPaymentsL2\": [\n        {\n            \"voucherId\": \"EVTEST011\"\n        },\n        {\n            \"voucherId\": \"EVTEST002\"\n        },\n        {\n            \"voucherId\": \"EVTEST003\"\n        }\n    ],\n    \"device\": {\n        \"deviceId\": \"CAEB9F958F384772A3311BC384B5853D\",\n        \"language\": \"MN\"\n    }\n}"
				},
				"url": {
					"raw": "http://192.168.203.240:8080/Loyalty/api/info/check/voucher",
					"protocol": "http",
					"host": [
						"192",
						"168",
						"203",
						"240"
					],
					"port": "8080",
					"path": [
						"Loyalty",
						"api",
						"info",
						"check",
						"voucher"
					]
				}
			},
			"response": []
		},
		{
			"name": "ReturnVoucherL2",
			"request": {
				"auth": {
					"type": "basic",
					"basic": [
						{
							"key": "password",
							"value": "123456",
							"type": "string"
						},
						{
							"key": "username",
							"value": "test-eshop",
							"type": "string"
						}
					]
				},
				"method": "POST",
				"header": [
					{
						"key": "Content-Type",
						"name": "Content-Type",
						"value": "application/json",
						"type": "text"
					}
				],
				"body": {
					"mode": "raw",
					"raw": "{\n    \"invoiceId\" : \"900ECAE814654B2A81D0B1F3A2C21368\",\n     \"device\": {\n        \"deviceId\": \"CAEB9F958F384772A3311BC384B5853D\",\n        \"language\": \"MN\"\n    }\n}"
				},
				"url": {
					"raw": "http://192.168.203.240:8080/Loyalty/api/transaction/return/voucher",
					"protocol": "http",
					"host": [
						"192",
						"168",
						"203",
						"240"
					],
					"port": "8080",
					"path": [
						"Loyalty",
						"api",
						"transaction",
						"return",
						"voucher"
					]
				}
			},
			"response": []
		},
		{
			"name": "PutVoucherL2-Phone",
			"request": {
				"auth": {
					"type": "basic",
					"basic": [
						{
							"key": "password",
							"value": "123456",
							"type": "string"
						},
						{
							"key": "username",
							"value": "test-eshop",
							"type": "string"
						}
					]
				},
				"method": "POST",
				"header": [
					{
						"key": "Content-Type",
						"name": "Content-Type",
						"value": "application/json",
						"type": "text"
					}
				],
				"body": {
					"mode": "raw",
					"raw": "{\n    \"requestId\": \"210920102210673345\",\n    \"voucherPaymentsL2\": [\n        {\n            \"voucherId\": \"EVTEST065\"\n        }\n    ],\n    \"user\": {\n        \"phoneNumber\": \"\",\n        \"email\": \"\",\n        \"noCardContinue\": true,\n        \"ebarimtBillType\": 1,\n        \"customerNo\": \"\"\n    },\n    \"device\": {\n        \"deviceId\": \"CAEB9F958F384772A3311BC384B5853D\",\n        \"language\": \"MN\"\n    }\n}"
				},
				"url": {
					"raw": "http://192.168.203.240:8080/Loyalty/api/transaction/put/voucher",
					"protocol": "http",
					"host": [
						"192",
						"168",
						"203",
						"240"
					],
					"port": "8080",
					"path": [
						"Loyalty",
						"api",
						"transaction",
						"put",
						"voucher"
					]
				}
			},
			"response": []
		},
		{
			"name": "PutVoucherL2-qrData",
			"request": {
				"auth": {
					"type": "basic",
					"basic": [
						{
							"key": "password",
							"value": "123456",
							"type": "string"
						},
						{
							"key": "username",
							"value": "test-eshop",
							"type": "string"
						}
					]
				},
				"method": "POST",
				"header": [
					{
						"key": "Content-Type",
						"name": "Content-Type",
						"value": "application/json",
						"type": "text"
					}
				],
				"body": {
					"mode": "raw",
					"raw": "{\n    \"requestId\": \"qrData\",\n    \"voucherPaymentsL2\": [\n        {\n            \"voucherId\": \"EVTEST060\"\n        }\n    ],\n    \"user\": {\n        \"cardNumber\": \"\",\n        \"email\": \"\",\n        \"noCardContinue\": true,\n        \"ebarimtBillType\": 1,\n        \"customerNo\": \"\"\n    },\n    \"device\": {\n        \"deviceId\": \"CAEB9F958F384772A3311BC384B5853D\",\n        \"language\": \"MN\"\n    }\n}"
				},
				"url": {
					"raw": "http://192.168.203.240:8080/Loyalty/api/transaction/put/voucher",
					"protocol": "http",
					"host": [
						"192",
						"168",
						"203",
						"240"
					],
					"port": "8080",
					"path": [
						"Loyalty",
						"api",
						"transaction",
						"put",
						"voucher"
					]
				}
			},
			"response": []
		},
		{
			"name": "TransactionVoucher",
			"request": {
				"auth": {
					"type": "basic",
					"basic": [
						{
							"key": "password",
							"value": "123456",
							"type": "string"
						},
						{
							"key": "username",
							"value": "test-eshop",
							"type": "string"
						}
					]
				},
				"method": "POST",
				"header": [
					{
						"key": "Content-Type",
						"name": "Content-Type",
						"value": "application/json",
						"type": "text"
					}
				],
				"body": {
					"mode": "raw",
					"raw": "{\n    \"requestId\": \"2023021210101001\",\n    \"invoiceId\": \"68234403A94F4E49A597EC976A369F07\",\n    \"bill\": {\n        \"billNo\": 1,\n        \"totalAmount\": 15000,\n        \"voucherAmountL2\": 15000,\n        \"sales\": [\n            {\n                \"itemId\": \"01H003-2507\",\n                \"quantity\": 100,\n                \"isWhole\": 0,\n                \"cityTax\": 0,\n                \"hasNuat\": 1,\n                \"basePrice\": 200,\n                \"price\": 150,\n                \"amount\": 15000\n\n            }\n        ],\n        \"giveAwayItems\": [],\n        \"lotteries\": []\n    },\n    \"payments\": [\n        {\n            \"type\": \"Voucher\",\n            \"amount\": 15000\n        }\n    ],\n    \"device\": {\n        \"deviceId\": \"CAEB9F958F384772A3311BC384B5853D\"\n    }\n}"
				},
				"url": {
					"raw": "http://192.168.203.240:8080/Loyalty/api/transaction/sales/voucher",
					"protocol": "http",
					"host": [
						"192",
						"168",
						"203",
						"240"
					],
					"port": "8080",
					"path": [
						"Loyalty",
						"api",
						"transaction",
						"sales",
						"voucher"
					]
				}
			},
			"response": []
		},
		{
			"name": "CheckVoucherSandBox",
			"request": {
				"auth": {
					"type": "basic",
					"basic": [
						{
							"key": "password",
							"value": "123456",
							"type": "string"
						},
						{
							"key": "username",
							"value": "test-eshop",
							"type": "string"
						}
					]
				},
				"method": "POST",
				"header": [
					{
						"key": "Content-Type",
						"name": "Content-Type",
						"value": "application/json",
						"type": "text"
					}
				],
				"body": {
					"mode": "raw",
					"raw": "{\n     \"cashierKey\": \"210528589646100001\",\n     \"locationKey\": \"180918230025700000\",\n     \"posKey\": \"210528101022100000\",\n     \"voucherId\": \"evtest001\"\n}"
				},
				"url": {
					"raw": "https://sandbox.nomin.mn/rest/voucher/check",
					"protocol": "https",
					"host": [
						"sandbox",
						"nomin",
						"mn"
					],
					"path": [
						"rest",
						"voucher",
						"check"
					]
				}
			},
			"response": []
		},
		{
			"name": "GetBillImage",
			"request": {
				"auth": {
					"type": "basic",
					"basic": [
						{
							"key": "password",
							"value": "123456",
							"type": "string"
						},
						{
							"key": "username",
							"value": "test-eshop",
							"type": "string"
						}
					]
				},
				"method": "POST",
				"header": [
					{
						"key": "Content-Type",
						"name": "Content-Type",
						"value": "application/json",
						"type": "text"
					}
				],
				"body": {
					"mode": "raw",
					"raw": "{\n    \"report\": {\n        \"copyName\": \"1\",\n        \"ttd\": \"5213339\",\n        \"billDate\": 1676291405693,\n        \"billNo\": \"# 2030 1281 3824\",\n        \"cash\": \"Electric-Test\",\n        \"pos\": \"3347\",\n        \"ddtd\": \"000000000038001230213003347203012\",\n        \"qrCode\": \"1028306625920073135582105763324712716850576252787499325506830152093726013234467640735805856887228879038227813022616822647642674302833762639300295348333391776501245265300882191703675416730418443028142938754500373539016669092743207453592101421963573924358314211160442038750653711443568083208139364953468116435924856112\",\n        \"lotteryNo\": \"NL DEMO2685\",\n        \"amountHasVat\": 16281.82,\n        \"vatAmount\": 1281.82,\n        \"amount\": 0,\n        \"payAmount\": 0,\n        \"cashAmount\": 0,\n        \"changeAmount\": 0,\n        \"voucherData\": {\n            \"amount\": 15000,\n            \"lstDtl\": [\n                {\n                    \"voucherCode\": \"EVTEST016\",\n                    \"amount\": 5000.00\n                }\n            ]\n        }\n    },\n    \"exportType\": \"image\"\n}"
				},
				"url": {
					"raw": "http://10.0.10.182:8009/POSReport/api/report/bill",
					"protocol": "http",
					"host": [
						"10",
						"0",
						"10",
						"182"
					],
					"port": "8009",
					"path": [
						"POSReport",
						"api",
						"report",
						"bill"
					]
				}
			},
			"response": []
		},
		{
			"name": "CheckVoucherL1",
			"request": {
				"auth": {
					"type": "basic",
					"basic": [
						{
							"key": "password",
							"value": "123456",
							"type": "string"
						},
						{
							"key": "username",
							"value": "test-eshop",
							"type": "string"
						}
					]
				},
				"method": "POST",
				"header": [
					{
						"key": "Content-Type",
						"name": "Content-Type",
						"value": "application/json",
						"type": "text"
					}
				],
				"body": {
					"mode": "raw",
					"raw": "{\n    \"voucherPaymentsL1\": [\n        {\n            \"voucherCode\": \"EM3004\"\n        },\n        {\n            \"voucherCode\": \"EM3003\"\n        },\n        {\n            \"voucherCode\": \"EM3002\"\n        }\n    ],\n    \"device\": {\n        \"deviceId\": \"CAEB9F958F384772A3311BC384B5853D\",\n        \"language\": \"MN\"\n    }\n}"
				},
				"url": {
					"raw": "http://192.168.203.240:8080/Loyalty/api/info/check/voucher",
					"protocol": "http",
					"host": [
						"192",
						"168",
						"203",
						"240"
					],
					"port": "8080",
					"path": [
						"Loyalty",
						"api",
						"info",
						"check",
						"voucher"
					]
				}
			},
			"response": []
		}
	]
}